{
    "title": "mov-prores422hq",
    "format": "mov",
    "command": "{ffmpeg} {start_number_type} {custom_start_number} {framerate_type} {custom_framerate} -i {custom_input} {vframes_type} {custom_vframes} -c:v prores_ks -profile:v 1 -vendor apl0 -bits_per_mb 8000 -pix_fmt yuv422p10le {overwrite_type} {custom_output}"
}